1 Análisis de distractores – Apuntes TCT-TRI
…
Como se puede observar la primera columna es el \(id\) de los evaluados, seguida del \(sexo\) (masculino-femenino) y de las respuestas de los \(47\) ítems.

Código
head(dmt[,1:7],n=3)

      id sexo X2001 X2004 X2005 X2006 X2007
1 ID0001    0     B     D     A     B     B
2 ID0002    0     B     C     A     B     D
3 ID0003    1     A     D     A     B     B

Código
# Tipos de datos de la tabla dmt
tibble(columna = names(dmt), tipo = sapply(dmt, class))

# A tibble: 49 × 2
   columna tipo     
   <chr>   <chr>    
 1 id      character
 2 sexo    numeric  
 3 X2001   character
 4 X2004   character
 5 X2005   character
 6 X2006   character
 7 X2007   character
 8 X2008   character
 9 X2009   character
10 X2010   character
# ℹ 39 more rows
…
# se reemplaza el * por un 1

distractores <- distractores %>% mutate(correct = ifelse(correct == "*", 1, 0)) %>% as_tibble()

El dataframe luce de la siguiente forma:

Código
distractores

# A tibble: 235 × 12
   item  response correct key       n  rspP  pbis discrim lower mid50 mid75
   <chr> <chr>      <dbl> <chr> <dbl> <dbl> <dbl>   <dbl> <dbl> <dbl> <dbl>
 1 X2001 99             0 99      355  0.15 -0.14   -0.08  0.18  0.18  0.14
 2 X2001 A              1 A       761  0.32  0.15    0.24  0.21  0.28  0.35
 3 X2001 B              0 B       768  0.32 -0.09   -0.05  0.34  0.33  0.33
 4 X2001 C              0 C       148  0.06 -0.19   -0.1   0.12  0.06  0.04
 5 X2001 D              0 D       360  0.15 -0.05    0     0.16  0.15  0.14
 6 X2004 99             0 99      561  0.23 -0.24   -0.21  0.33  0.24  0.22
 7 X2004 A              0 A       433  0.18 -0.2    -0.17  0.26  0.21  0.16
 8 X2004 B              0 B       196  0.08 -0.15   -0.07  0.1   0.13  0.06
 9 X2004 C              0 C       263  0.11 -0.04   -0.01  0.1   0.11  0.13
10 X2004 D              1 D       939  0.39  0.32    0.45  0.2   0.31  0.44
# ℹ 225 more rows
# ℹ 1 more variable: upper <dbl>
…
